<?xml version="1.0" encoding="UTF-8"?>
<testsuites>
  <testsuite name="Combinations" tests="4" assertions="13" errors="0" failures="0" skipped="0" time="0.007880">
    <testsuite name="VechicleFactoryTest" file="/var/www/html/Travel-With-Me/tests/VechicleFactoryTest.php" tests="1" assertions="4" errors="0" failures="0" skipped="0" time="0.004509">
      <testcase name="testReturnTypeOfVechiceFactory" class="VechicleFactoryTest" classname="VechicleFactoryTest" file="/var/www/html/Travel-With-Me/tests/VechicleFactoryTest.php" line="40" assertions="4" time="0.004509"/>
    </testsuite>
    <testsuite name="VechicleTest" file="/var/www/html/Travel-With-Me/tests/VehicleTest.php" tests="3" assertions="9" errors="0" failures="0" skipped="0" time="0.003371">
      <testcase name="testTimeSpentFormEveryVechilce" class="VechicleTest" classname="VechicleTest" file="/var/www/html/Travel-With-Me/tests/VehicleTest.php" line="52" assertions="3" time="0.001477"/>
      <testcase name="testFuelStoptFormEveryVechilce" class="VechicleTest" classname="VechicleTest" file="/var/www/html/Travel-With-Me/tests/VehicleTest.php" line="69" assertions="3" time="0.000947"/>
      <testcase name="testTypeOfEveryVechilce" class="VechicleTest" classname="VechicleTest" file="/var/www/html/Travel-With-Me/tests/VehicleTest.php" line="86" assertions="3" time="0.000947"/>
    </testsuite>
  </testsuite>
</testsuites>
